id,user_id,first_name,middle_name,last_name,suffix_name,full_name,birth_date,gender,house_street,barangay,municipality,province,region,full_address,contact_number,image
bad2833b-0434-4e42-bcdc-89927a2e7e31,998cbc7c-d13a-4768-80ae-b778a7d85c77,Adam,Terry,Forsyth,,Adam Terry Forsyth,1994-10-25,Male,63 Atlantic Avenue,137404022,137404000,137400000,130000000,"63 Atlantic Avenue, Commonwealth, Quezon City, NCR",9325555792,
91a62a5e-7bca-482b-955b-ea831e0087c2,5d02fe5e-2d47-45e1-bb46-edd3eb16aa3b,Cameron,Baker,Slater,,Cameron Baker Slater,1979-11-08,Male,98 Pleasant Street,137404022,137404000,137400000,130000000,"98 Pleasant Street, Commonwealth, Quezon City, NCR",9702099933,
4f9cabbb-8ec2-4ceb-8039-06a759bf4f8e,462cabf0-c577-4e97-ab4e-4cb38b7f00da,Nathan,Skinner,Hart,,Nathan Skinner Hart,1980-04-01,Male,94 Forest Street,137404022,137404000,137400000,130000000,"94 Forest Street, Commonwealth, Quezon City, NCR",9195558863,
2db64c0d-6f2c-4ca0-af57-15fe04604e1c,c6a4851e-a912-464b-8d23-17f1eeb49be0,Keith,Paige,Blake,,Keith Paige Blake,1981-02-05,Male,75 Cedar Lane,137404022,137404000,137400000,130000000,"75 Cedar Lane, Commonwealth, Quezon City, NCR",9702099933,
669dc33b-0135-4000-8444-91b7f916651c,2e084aed-6df4-480a-a629-435d697cf0c0,Blake,Arnold,Mackenzie,,Blake Arnold Mackenzie,1998-04-25,Male,98 Essex Court,137404022,137404000,137400000,130000000,"98 Essex Court, Commonwealth, Quezon City, NCR",9335555396,
06aceb97-72d8-4c6a-8e44-55201abddb32,39e8dac8-c666-4cee-90db-1324373d382b,Joseph,Reid,Lyman,,Joseph Reid Lyman,1992-09-16,Male,25 Fairway Drive,137404022,137404000,137400000,130000000,"25 Fairway Drive, Commonwealth, Quezon City, NCR",2805556106,
91a1cbf7-ca06-4ac7-993a-138b8e4ca18a,ede49a07-1db2-4136-801c-fcc093153d94,Ryan,Payne,Rutherford,,Ryan Payne Rutherford,2001-01-05,Male,30 Briarwood Drive,137404022,137404000,137400000,130000000,"30 Briarwood Drive, Commonwealth, Quezon City, NCR",9285558627,
d4d0f97f-e8d8-413f-bebb-7667b82a3d1b,bb723a4c-1909-43b5-afdd-e7d76f4c3e4d,Sam,Parr,Rees,,Sam Parr Rees,1976-12-20,Male,53 John Street,137404022,137404000,137400000,130000000,"53 John Street, Commonwealth, Quezon City, NCR",2835550065,
b62ff4d5-1a11-4b5d-af59-4808e3a96869,e1eb1a7f-3f6e-4596-a725-7849f1f35ef1,Adrian,Thomson,Bell,,Adrian Thomson Bell,1975-03-31,Male,122 Country Club Road,137404022,137404000,137400000,130000000,"122 Country Club Road, Commonwealth, Quezon City, NCR",9215558802