id,name,location
e79ec99e-47a2-4b27-8a1f-d39400e712eb,General Ward,2nd Floor
349a786f-6402-44ef-aa26-e0e062301352,MEDICAL INTENSIVE CARE UNIT (MICU),2nd Floor
d34582bc-b972-48c4-990f-ad755b1951a9,SURGICAL INTENSIVE CARE UNIT (SICU),2nd Floor
279d0919-9a3f-47b4-81ce-094f56c8e92c,NURSERY,3rd Floor
5a0aecfc-a94b-4e9f-9d99-fe09492d325f,ACUTE STROKE UNIT (ASU),3rd Floor
19b4541c-231e-40c5-a291-526ceed370dc,PEDIATRIC INTENSIVE CARE UNIT (PICU),3rd Floor
91dab3b2-e33d-4f24-ab60-73f8ede3b1a5,NEUROLOGICAL CRITICAL CARE UNIT (NCCU), 2nd Floor
2ff81aa9-8d89-4d26-ac66-5b1961c422bd,CORONARY CARE UNIT (CCU), 3rd Floor